Filter observations to repeat visits for hierarchical modeling — filter_repeat_visits • rOpenSci: auk
…
    Other modeling: 
format_unmarked_occu()

    Examples

# read and zero-fill the ebd data
f_ebd <- system.file("extdata/zerofill-ex_ebd.txt", package = "auk")
f_smpl <- system.file("extdata/zerofill-ex_sampling.txt", package = "auk")
# data must be for a single species
ebd_zf <- auk_zerofill(x = f_ebd, sampling_events = f_smpl,
                       species = "Collared Kingfisher",
                       collapse = TRUE)
filter_repeat_visits(ebd_zf, n_days = 30)

#> # A tibble: 181 x 37
#>    site         closure_id n_observations checklist_id last_edited_date  country
#>    <chr>        <chr>               <int> <chr>        <chr>             <chr>  
#>  1 L1055540_ob… 2012-9                  2 S11680564    2017-10-19 12:47… Singap…
#>  2 L1055540_ob… 2012-9                  2 S11718518    2018-02-01 09:27… Singap…
#>  3 L1277940_ob… 2012-8                  3 S11664225    2017-05-27 11:00… Singap…
#>  4 L1277940_ob… 2012-8                  3 S11675087    2017-05-27 11:00… Singap…
#>  5 L1277940_ob… 2012-8                  3 S11668164    2017-05-27 10:25… Singap…
#>  6 L1361109_ob… 2012-0                 10 S9492400     2017-05-27 10:37… Singap…
#>  7 L1361109_ob… 2012-0                 10 S9503604     2017-05-27 10:37… Singap…
#>  8 L1361109_ob… 2012-0                 10 S9513531     2017-05-27 10:37… Singap…
#>  9 L1361109_ob… 2012-0                 10 S9629042     2017-05-27 10:46… Singap…
#> 10 L1361109_ob… 2012-0                 10 S9652476     2017-05-27 10:36… Singap…
#> # … with 171 more rows, and 31 more variables: country_code <chr>, state <chr>,
#> #   state_code <chr>, county <chr>, county_code <chr>, iba_code <chr>,
#> #   bcr_code <int>, usfws_code <chr>, atlas_block <chr>, locality <chr>,
#> #   locality_id <chr>, locality_type <chr>, latitude <dbl>, longitude <dbl>,
#> #   observation_date <date>, time_observations_started <chr>,
#> #   observer_id <chr>, sampling_event_identifier <chr>, protocol_type <chr>,
#> #   protocol_code <chr>, project_code <chr>, duration_minutes <int>,
#> #   effort_distance_km <dbl>, effort_area_ha <dbl>, number_observers <int>,
#> #   all_species_reported <lgl>, group_identifier <chr>, trip_comments <chr>,
…
